11_State_Machine/a.vcd
$date
	Wed May  5 11:46:45 2021
$end
$version
	Icarus Verilog
$end
$timescale
	1ps
$end
$scope module testbench $end
$var wire 1 ! res_in $end
$var wire 1 " Cout $end
$var reg 4 # A [3:0] $end
$var reg 4 $ B [3:0] $end
$var reg 1 % clk $end
$var reg 2 & pos [1:0] $end
$var reg 5 ' res [4:0] $end
$var reg 1 ( rst $end
$var integer 32 ) x [31:0] $end
$var integer 32 * y [31:0] $end
$scope module DUT $end
$var wire 1 + A $end
$var wire 1 , B $end
$var wire 1 " Cout $end
$var wire 1 ! F $end
$var wire 1 % clk $end
$var wire 1 ( rst $end
$var reg 2 - nState [1:0] $end
$var reg 2 . pState [1:0] $end
$upscope $end
$upscope $end
$enddefinitions $end
#0
$dumpvars
bx .
bx -
x,
x+
bx *
bx )
0(
bx '
bx &
1%
bx $
bx #
x"
x!
$end
#5000
b1 -
0!
0"
b0 .
0%
1(
#10000
1%
#15000
0%
b0 $
b0 #
b0 *
b0 )
0(
#20000
1%
1(
#25000
0%
#30000
b0 -
1%
0+
0,
b0 &
0(
#35000
0%
#40000
1%
b1 &
bx0 '
#45000
0%
#50000
1%
b10 &
bx00 '
#55000
0%
#60000
1%
b11 &
bx000 '
#65000
0%
#70000
1%
b1 $
b1 *
b0 '
#75000
0%
1(
#80000
1%
#85000
b1 -
0%
1,
b0 &
0(
#90000
1!
b1 .
1%
#95000
b0 -
0%
0,
b1 &
b1 '
#100000
0!
b0 .
1%
#105000
0%
b10 &
#110000
1%
#115000
0%
b11 &
#120000
1%
#125000
0%
b10 $
b10 *
#130000
1%
1(
#135000
0%
#140000
1%
b0 &
0(
#145000
0%
#150000
1!
b1 .
b1 -
1%
1,
b1 &
b0 '
#155000
0%
#160000
0!
b0 .
b0 -
1%
0,
b10 &
b10 '
#165000
0%
#170000
1%
b11 &
#175000
0%
#180000
1%
b11 $
b11 *
#185000
0%
1(
#190000
1%
#195000
b1 -
0%
1,
b0 &
0(
#200000
1!
b1 .
1%
#205000
0%
b1 &
b11 '
#210000
1%
#215000
b0 -
0%
0,
b10 &
#220000
0!
b0 .
1%
#225000
0%
b11 &
#230000
1%
#235000
0%
b100 $
b100 *
#240000
1%
1(
#245000
0%
#250000
1%
b0 &
0(
#255000
0%
#260000
1%
b1 &
b10 '
#265000
0%
#270000
1!
b1 .
b1 -
1%
1,
b10 &
b0 '
#275000
0%
#280000
0!
b0 .
b0 -
1%
0,
b11 &
b100 '
#285000
0%
#290000
1%
b101 $
b101 *
#295000
0%
1(
#300000
1%
#305000
b1 -
0%
1,
b0 &
0(
#310000
1!
b1 .
1%
#315000
b0 -
0%
0,
b1 &
b101 '
#320000
0!
b0 .
1%
#325000
b1 -
0%
1,
b10 &
#330000
1!
b1 .
1%
#335000
b0 -
0%
0,
b11 &
#340000
0!
b0 .
1%
#345000
0%
b110 $
b110 *
#350000
1%
1(
#355000
0%
#360000
1%
b0 &
0(
#365000
0%
#370000
1!
b1 .
b1 -
1%
1,
b1 &
b100 '
#375000
0%
#380000
1%
b10 &
b110 '
#385000
0%
#390000
0!
b0 .
b0 -
1%
0,
b11 &
#395000
0%
#400000
1%
b111 $
b111 *
#405000
0%
1(
#410000
1%
#415000
b1 -
0%
1,
b0 &
0(
#420000
1!
b1 .
1%
#425000
0%
b1 &
b111 '
#430000
1%
#435000
0%
b10 &
#440000
1%
#445000
b0 -
0%
0,
b11 &
#450000
0!
b0 .
1%
#455000
b1 -
0%
1,
b1000 $
b1000 *
#460000
1%
1(
#465000
0%
#470000
b0 -
1%
0,
b0 &
0(
#475000
0%
#480000
1%
b1 &
b110 '
#485000
0%
#490000
1%
b10 &
b100 '
#495000
0%
#500000
1!
b1 .
b1 -
1%
1,
b11 &
b0 '
#505000
0%
#510000
1%
b1001 $
b1001 *
b1000 '
#515000
0!
b0 .
0%
1(
#520000
1%
#525000
0%
b0 &
0(
#530000
1!
b1 .
1%
#535000
b0 -
0%
0,
b1 &
b1001 '
#540000
0!
b0 .
1%
#545000
0%
b10 &
#550000
1%
#555000
b1 -
0%
1,
b11 &
#560000
1!
b1 .
1%
#565000
0%
b1010 $
b1010 *
#570000
0!
b0 .
1%
1(
#575000
0%
#580000
b0 -
1%
0,
b0 &
0(
#585000
0%
#590000
1!
b1 .
b1 -
1%
1,
b1 &
b1000 '
#595000
0%
#600000
0!
b0 .
b0 -
1%
0,
b10 &
b1010 '
#605000
0%
#610000
1!
b1 .
b1 -
1%
1,
b11 &
#615000
0%
#620000
1%
b1011 $
b1011 *
#625000
0!
b0 .
0%
1(
#630000
1%
#635000
0%
b0 &
0(
#640000
1!
b1 .
1%
#645000
0%
b1 &
b1011 '
#650000
1%
#655000
b0 -
0%
0,
b10 &
#660000
0!
b0 .
1%
#665000
b1 -
0%
1,
b11 &
#670000
1!
b1 .
1%
#675000
0%
b1100 $
b1100 *
#680000
0!
b0 .
1%
1(
#685000
0%
#690000
b0 -
1%
0,
b0 &
0(
#695000
0%
#700000
1%
b1 &
b1010 '
#705000
0%
#710000
1!
b1 .
b1 -
1%
1,
b10 &
b1000 '
#715000
0%
#720000
1%
b11 &
b1100 '
#725000
0%
#730000
1%
b1101 $
b1101 *
#735000
0!
b0 .
0%
1(
#740000
1%
#745000
0%
b0 &
0(
#750000
1!
b1 .
1%
#755000
b0 -
0%
0,
b1 &
b1101 '
#760000
0!
b0 .
1%
#765000
b1 -
0%
1,
b10 &
#770000
1!
b1 .
1%
#775000
0%
b11 &
#780000
1%
#785000
0%
b1110 $
b1110 *
#790000
0!
b0 .
1%
1(
#795000
0%
#800000
b0 -
1%
0,
b0 &
0(
#805000
0%
#810000
1!
b1 .
b1 -
1%
1,
b1 &
b1100 '
#815000
0%
#820000
1%
b10 &
b1110 '
#825000
0%
#830000
1%
b11 &
#835000
0%
#840000
1%
b1111 $
b1111 *
#845000
0!
b0 .
0%
1(
#850000
1%
#855000
0%
b0 &
0(
#860000
1!
b1 .
1%
#865000
0%
b1 &
b1111 '
#870000
1%
#875000
0%
b10 &
#880000
1%
#885000
0%
b11 &
#890000
1%
#895000
b0 -
0%
0,
b0 $
b1 #
b1 )
b0 *
#900000
0!
b0 .
1%
1(
#905000
0%
#910000
1!
b1 .
b1 -
1%
1+
b0 &
0(
#915000
0%
#920000
0!
b0 .
b0 -
1%
0+
b1 &
#925000
0%
#930000
1%
b10 &
b1101 '
#935000
0%
#940000
1%
b11 &
b1001 '
#945000
0%
#950000
1%
b1 $
b1 *
b1 '
#955000
0%
1(
#960000
1%
#965000
b10 -
0%
1+
1,
b0 &
0(
#970000
b11 -
1"
b10 .
1%
#975000
b1 -
0%
0+
0,
b1 &
b0 '
#980000
b0 -
1!
0"
b1 .
1%
#985000
0%
b10 &
b10 '
#990000
0!
b0 .
1%
#995000
0%
b11 &
#1000000
1%
#1005000
0%
b10 $
b10 *
#1010000
1%
1(
#1015000
0%
#1020000
1!
b1 .
b1 -
1%
1+
b0 &
0(
#1025000
0%
#1030000
1%
0+
1,
b1 &
b11 '
#1035000
0%
#1040000
0!
b0 .
b0 -
1%
0,
b10 &
#1045000
0%
#1050000
1%
b11 &
#1055000
0%
#1060000
1%
b11 $
b11 *
#1065000
0%
1(
#1070000
1%
#1075000
b10 -
0%
1+
1,
b0 &
0(
#1080000
b11 -
1"
b10 .
1%
#1085000
b10 -
0%
0+
b1 &
b10 '
#1090000
1%
#1095000
b1 -
0%
0,
b10 &
b0 '
#1100000
b0 -
1!
0"
b1 .
1%
#1105000
0%
b11 &
b100 '
#1110000
0!
b0 .
1%
#1115000
0%
b100 $
b100 *
#1120000
1%
1(
#1125000
0%
#1130000
1!
b1 .
b1 -
1%
1+
b0 &
0(
#1135000
0%
#1140000
0!
b0 .
b0 -
1%
0+
b1 &
b101 '
#1145000
0%
#1150000
1!
b1 .
b1 -
1%
1,
b10 &
#1155000
0%
#1160000
0!
b0 .
b0 -
1%
0,
b11 &
#1165000
0%
#1170000
1%
b101 $
b101 *
#1175000
0%
1(
#1180000
1%
#1185000
b10 -
0%
1+
1,
b0 &
0(
#1190000
b11 -
1"
b10 .
1%
#1195000
b1 -
0%
0+
0,
b1 &
b100 '
#1200000
b0 -
1!
0"
b1 .
1%
#1205000
b1 -
0%
1,
b10 &
b110 '
#1210000
1%
#1215000
b0 -
0%
0,
b11 &
#1220000
0!
b0 .
1%
#1225000
0%
b110 $
b110 *
#1230000
1%
1(
#1235000
0%
#1240000
1!
b1 .
b1 -
1%
1+
b0 &
0(
#1245000
0%
#1250000
1%
0+
1,
b1 &
b111 '
#1255000
0%
#1260000
1%
b10 &
#1265000
0%
#1270000
0!
b0 .
b0 -
1%
0,
b11 &
#1275000
0%
#1280000
1%
b111 $
b111 *
#1285000
0%
1(
#1290000
1%
#1295000
b10 -
0%
1+
1,
b0 &
0(
#1300000
b11 -
1"
b10 .
1%
#1305000
b10 -
0%
0+
b1 &
b110 '
#1310000
1%
#1315000
0%
b10 &
b100 '
#1320000
1%
#1325000
b1 -
0%
0,
b11 &
b0 '
#1330000
b0 -
1!
0"
b1 .
1%
#1335000
b1 -
0%
1,
b1000 $
b1000 *
b1000 '
#1340000
0!
b0 .
1%
1(
#1345000
0%
#1350000
1!
b1 .
1%
1+
0,
b0 &
0(
#1355000
0%
#1360000
0!
b0 .
b0 -
1%
0+
b1 &
b1001 '
#1365000
0%
#1370000
1%
b10 &
#1375000
0%
#1380000
1!
b1 .
b1 -
1%
1,
b11 &
#1385000
0%
#1390000
1%
b1001 $
b1001 *
#1395000
0!
b0 .
0%
1(
#1400000
1%
#1405000
b10 -
0%
1+
b0 &
0(
#1410000
b11 -
1"
b10 .
1%
#1415000
b1 -
0%
0+
0,
b1 &
b1000 '
#1420000
b0 -
1!
0"
b1 .
1%
#1425000
0%
b10 &
b1010 '
#1430000
0!
b0 .
1%
#1435000
b1 -
0%
1,
b11 &
#1440000
1!
b1 .
1%
#1445000
0%
b1010 $
b1010 *
#1450000
0!
b0 .
1%
1(
#1455000
0%
#1460000
1!
b1 .
1%
1+
0,
b0 &
0(
#1465000
0%
#1470000
1%
0+
1,
b1 &
b1011 '
#1475000
0%
#1480000
0!
b0 .
b0 -
1%
0,
b10 &
#1485000
0%
#1490000
1!
b1 .
b1 -
1%
1,
b11 &
#1495000
0%
#1500000
1%
b1011 $
b1011 *
#1505000
0!
b0 .
0%
1(
#1510000
1%
#1515000
b10 -
0%
1+
b0 &
0(
#1520000
b11 -
1"
b10 .
1%
#1525000
b10 -
0%
0+
b1 &
b1010 '
#1530000
1%
#1535000
b1 -
0%
0,
b10 &
b1000 '
#1540000
b0 -
1!
0"
b1 .
1%
#1545000
b1 -
0%
1,
b11 &
b1100 '
#1550000
1%
#1555000
0%
b1100 $
b1100 *
#1560000
0!
b0 .
1%
1(
#1565000
0%
#1570000
1!
b1 .
1%
1+
0,
b0 &
0(
#1575000
0%
#1580000
0!
b0 .
b0 -
1%
0+
b1 &
b1101 '
#1585000
0%
#1590000
1!
b1 .
b1 -
1%
1,
b10 &
#1595000
0%
#1600000
1%
b11 &
#1605000
0%
#1610000
1%
b1101 $
b1101 *
#1615000
0!
b0 .
0%
1(
#1620000
1%
#1625000
b10 -
0%
1+
b0 &
0(
#1630000
b11 -
1"
b10 .
1%
#1635000
b1 -
0%
0+
0,
b1 &
b1100 '
#1640000
b0 -
1!
0"
b1 .
1%
#1645000
b1 -
0%
1,
b10 &
b1110 '
#1650000
1%
#1655000
0%
b11 &
#1660000
1%
#1665000
0%
b1110 $
b1110 *
#1670000
0!
b0 .
1%
1(
#1675000
0%
#1680000
1!
b1 .
1%
1+
0,
b0 &
0(
#1685000
0%
#1690000
1%
0+
1,
b1 &
b1111 '
#1695000
0%
#1700000
1%
b10 &
#1705000
0%
#1710000
1%
b11 &
#1715000
0%
#1720000
1%
b1111 $
b1111 *
#1725000
0!
b0 .
0%
1(
#1730000
1%
#1735000
b10 -
0%
1+
b0 &
0(
#1740000
b11 -
1"
b10 .
1%
#1745000
b10 -
0%
0+
b1 &
b1110 '
#1750000
1%
#1755000
0%
b10 &
b1100 '
#1760000
1%
#1765000
0%
b11 &
b1000 '
#1770000
1%
#1775000
b1 -
0%
0,
b0 $
b10 #
b10 )
b0 *
b10000 '
#1780000
b0 -
0"
b0 .
1%
1(
#1785000
0%
#1790000
1%
b0 &
0(
#1795000
0%
#1800000
1!
b1 .
b1 -
1%
1+
b1 &
#1805000
0%
#1810000
0!
b0 .
b0 -
1%
0+
b10 &
b10010 '
#1815000
0%
#1820000
1%
b11 &
#1825000
0%
#1830000
1%
b1 $
b1 *
b10 '
#1835000
0%
1(
#1840000
1%
#1845000
b1 -
0%
1,
b0 &
0(
#1850000
1!
b1 .
1%
#1855000
0%
1+
0,
b1 &
b11 '
#1860000
1%
#1865000
b0 -
0%
0+
b10 &
#1870000
0!
b0 .
1%
#1875000
0%
b11 &
#1880000
1%
#1885000
0%
b10 $
b10 *
#1890000
1%
1(
#1895000
0%
#1900000
1%
b0 &
0(
#1905000
0%
#1910000
1"
b10 .
b11 -
1%
1+
1,
b1 &
b10 '
#1915000
0%
#1920000
1!
0"
b1 .
b0 -
1%
0+
0,
b10 &
b0 '
#1925000
0%
#1930000
0!
b0 .
1%
b11 &
b100 '
#1935000
0%
#1940000
1%
b11 $
b11 *
#1945000
0%
1(
#1950000
1%
#1955000
b1 -
0%
1,
b0 &
0(
#1960000
1!
b1 .
1%
#1965000
b10 -
0%
1+
b1 &
b101 '
#1970000
b11 -
0!
1"
b10 .
1%
#1975000
b1 -
0%
0+
0,
b10 &
#1980000
b0 -
1!
0"
b1 .
1%
#1985000
0%
b11 &
#1990000
0!
b0 .
1%
#1995000
0%
b100 $
b100 *
#2000000
1%
1(
#2005000
0%
#2010000
1%
b0 &
0(
#2015000
0%
#2020000
1!
b1 .
b1 -
1%
1+
b1 &
b100 '
#2025000
0%
#2030000
1%
0+
1,
b10 &
b110 '
#2035000
0%
#2040000
0!
b0 .
b0 -
1%
0,
b11 &
#2045000
0%
#2050000
1%
b101 $
b101 *
#2055000
0%
1(
#2060000
1%
#2065000
b1 -
0%
1,
b0 &
0(
#2070000
1!
b1 .
1%
#2075000
0%
1+
0,
b1 &
b111 '
#2080000
1%
#2085000
0%
0+
1,
b10 &
#2090000
1%
#2095000
b0 -
0%
0,
b11 &
#2100000
0!
b0 .
1%
#2105000
0%
b110 $
b110 *
#2110000
1%
1(
#2115000
0%
#2120000
1%
b0 &
0(
#2125000
0%
#2130000
1"
b10 .
b11 -
1%
1+
1,
b1 &
b110 '
#2135000
0%
#2140000
b10 -
1%
0+
b10 &
b100 '
#2145000
0%
#2150000
1!
0"
b1 .
b0 -
1%
0,
b11 &
b0 '
#2155000
0%
#2160000
0!
b0 .
1%
b111 $
b111 *
b1000 '
#2165000
0%
1(
#2170000
1%
#2175000
b1 -
0%
1,
b0 &
0(
#2180000
1!
b1 .
1%
#2185000
b10 -
0%
1+
b1 &
b1001 '
#2190000
b11 -
0!
1"
b10 .
1%
#2195000
b10 -
0%
0+
b10 &
#2200000
1%
#2205000
b1 -
0%
0,
b11 &
#2210000
b0 -
1!
0"
b1 .
1%
#2215000
b1 -
0%
1,
b1000 $
b1000 *
#2220000
0!
b0 .
1%
1(
#2225000
0%
#2230000
b0 -
1%
0,
b0 &
0(
#2235000
0%
#2240000
1!
b1 .
b1 -
1%
1+
b1 &
b1000 '
#2245000
0%
#2250000
0!
b0 .
b0 -
1%
0+
b10 &
b1010 '
#2255000
0%
#2260000
1!
b1 .
b1 -
1%
1,
b11 &
#2265000
0%
#2270000
1%
b1001 $
b1001 *
#2275000
0!
b0 .
0%
1(
#2280000
1%
#2285000
0%
b0 &
0(
#2290000
1!
b1 .
1%
#2295000
0%
1+
0,
b1 &
b1011 '
#2300000
1%
#2305000
b0 -
0%
0+
b10 &
#2310000
0!
b0 .
1%
#2315000
b1 -
0%
1,
b11 &
#2320000
1!
b1 .
1%
#2325000
0%
b1010 $
b1010 *
#2330000
0!
b0 .
1%
1(
#2335000
0%
#2340000
b0 -
1%
0,
b0 &
0(
#2345000
0%
#2350000
1"
b10 .
b11 -
1%
1+
1,
b1 &
b1010 '
#2355000
0%
#2360000
1!
0"
b1 .
b0 -
1%
0+
0,
b10 &
b1000 '
#2365000
0%
#2370000
b1 -
1%
1,
b11 &
b1100 '
#2375000
0%
#2380000
1%
b1011 $
b1011 *
#2385000
0!
b0 .
0%
1(
#2390000
1%
#2395000
0%
b0 &
0(
#2400000
1!
b1 .
1%
#2405000
b10 -
0%
1+
b1 &
b1101 '
#2410000
b11 -
0!
1"
b10 .
1%
#2415000
b1 -
0%
0+
0,
b10 &
#2420000
b0 -
1!
0"
b1 .
1%
#2425000
b1 -
0%
1,
b11 &
#2430000
1%
#2435000
0%
b1100 $
b1100 *
#2440000
0!
b0 .
1%
1(
#2445000
0%
#2450000
b0 -
1%
0,
b0 &
0(
#2455000
0%
#2460000
1!
b1 .
b1 -
1%
1+
b1 &
b1100 '
#2465000
0%
#2470000
1%
0+
1,
b10 &
b1110 '
#2475000
0%
#2480000
1%
b11 &
#2485000
0%
#2490000
1%
b1101 $
b1101 *
#2495000
0!
b0 .
0%
1(
#2500000
1%
#2505000
0%
b0 &
0(
#2510000
1!
b1 .
1%
#2515000
0%
1+
0,
b1 &
b1111 '
#2520000
1%
#2525000
0%
0+
1,
b10 &
#2530000
1%
#2535000
0%
b11 &
#2540000
1%
#2545000
0%
b1110 $
b1110 *
#2550000
0!
b0 .
1%
1(
#2555000
0%
#2560000
b0 -
1%
0,
b0 &
0(
#2565000
0%
#2570000
1"
b10 .
b11 -
1%
1+
1,
b1 &
b1110 '
#2575000
0%
#2580000
b10 -
1%
0+
b10 &
b1100 '
#2585000
0%
#2590000
1%
b11 &
b1000 '
#2595000
0%
#2600000
1%
b1111 $
b1111 *
b10000 '
#2605000
b1 -
0"
b0 .
0%
1(
#2610000
1%
#2615000
0%
b0 &
0(
#2620000
1!
b1 .
1%
#2625000
b10 -
0%
1+
b1 &
b10001 '
#2630000
b11 -
0!
1"
b10 .
1%
#2635000
b10 -
0%
0+
b10 &
#2640000
1%
#2645000
0%
b11 &
#2650000
1%
#2655000
b1 -
0%
0,
b0 $
b11 #
b11 )
b0 *
#2660000
b0 -
0"
b0 .
1%
1(
#2665000
0%
#2670000
1!
b1 .
b1 -
1%
1+
b0 &
0(
#2675000
0%
#2680000
1%
b1 &
#2685000
0%
#2690000
0!
b0 .
b0 -
1%
0+
b10 &
b10011 '
#2695000
0%
#2700000
1%
b11 &
#2705000
0%
#2710000
1%
b1 $
b1 *
b11 '
#2715000
0%
1(
#2720000
1%
#2725000
b10 -
0%
1+
1,
b0 &
0(
#2730000
b11 -
1"
b10 .
1%
#2735000
b10 -
0%
0,
b1 &
b10 '
#2740000
1%
#2745000
b1 -
0%
0+
b10 &
b0 '
#2750000
b0 -
1!
0"
b1 .
1%
#2755000
0%
b11 &
b100 '
#2760000
0!
b0 .
1%
#2765000
0%
b10 $
b10 *
#2770000
1%
1(
#2775000
0%
#2780000
1!
b1 .
b1 -
1%
1+
b0 &
0(
#2785000
0%
#2790000
0!
1"
b10 .
b11 -
1%
1,
b1 &
b101 '
#2795000
0%
#2800000
1!
0"
b1 .
b0 -
1%
0+
0,
b10 &
#2805000
0%
#2810000
0!
b0 .
1%
b11 &
#2815000
0%
#2820000
1%
b11 $
b11 *
#2825000
0%
1(
#2830000
1%
#2835000
b10 -
0%
1+
1,
b0 &
0(
#2840000
b11 -
1"
b10 .
1%
#2845000
0%
b1 &
b100 '
#2850000
1!
b11 .
1%
#2855000
b1 -
0%
0+
0,
b10 &
b110 '
#2860000
b0 -
0"
b1 .
1%
#2865000
0%
b11 &
#2870000
0!
b0 .
1%
#2875000
0%
b100 $
b100 *
#2880000
1%
1(
#2885000
0%
#2890000
1!
b1 .
b1 -
1%
1+
b0 &
0(
#2895000
0%
#2900000
1%
b1 &
b111 '
#2905000
0%
#2910000
1%
0+
1,
b10 &
#2915000
0%
#2920000
0!
b0 .
b0 -
1%
0,
b11 &
#2925000
0%
#2930000
1%
b101 $
b101 *
#2935000
0%
1(
#2940000
1%
#2945000
b10 -
0%
1+
1,
b0 &
0(
#2950000
b11 -
1"
b10 .
1%
#2955000
b10 -
0%
0,
b1 &
b110 '
#2960000
1%
#2965000
0%
0+
1,
b10 &
b100 '
#2970000
1%
#2975000
b1 -
0%
0,
b11 &
b0 '
#2980000
b0 -
1!
0"
b1 .
1%
#2985000
0%
b110 $
b110 *
b1000 '
#2990000
0!
b0 .
1%
1(
#2995000
0%
#3000000
1!
b1 .
b1 -
1%
1+
b0 &
0(
#3005000
0%
#3010000
0!
1"
b10 .
b11 -
1%
1,
b1 &
b1001 '
#3015000
0%
#3020000
b10 -
1%
0+
b10 &
#3025000
0%
#3030000
1!
0"
b1 .
b0 -
1%
0,
b11 &
#3035000
0%
#3040000
0!
b0 .
1%
b111 $
b111 *
#3045000
0%
1(
#3050000
1%
#3055000
b10 -
0%
1+
1,
b0 &
0(
#3060000
b11 -
1"
b10 .
1%
#3065000
0%
b1 &
b1000 '
#3070000
1!
b11 .
1%
#3075000
b10 -
0%
0+
b10 &
b1010 '
#3080000
0!
b10 .
1%
#3085000
b1 -
0%
0,
b11 &
#3090000
b0 -
1!
0"
b1 .
1%
#3095000
b1 -
0%
1,
b1000 $
b1000 *
#3100000
0!
b0 .
1%
1(
#3105000
0%
#3110000
1!
b1 .
1%
1+
0,
b0 &
0(
#3115000
0%
#3120000
1%
b1 &
b1011 '
#3125000
0%
#3130000
0!
b0 .
b0 -
1%
0+
b10 &
#3135000
0%
#3140000
1!
b1 .
b1 -
1%
1,
b11 &
#3145000
0%
#3150000
1%
b1001 $
b1001 *
#3155000
0!
b0 .
0%
1(
#3160000
1%
#3165000
b10 -
0%
1+
b0 &
0(
#3170000
b11 -
1"
b10 .
1%
#3175000
b10 -
0%
0,
b1 &
b1010 '
#3180000
1%
#3185000
b1 -
0%
0+
b10 &
b1000 '
#3190000
b0 -
1!
0"
b1 .
1%
#3195000
b1 -
0%
1,
b11 &
b1100 '
#3200000
1%
#3205000
0%
b1010 $
b1010 *
#3210000
0!
b0 .
1%
1(
#3215000
0%
#3220000
1!
b1 .
1%
1+
0,
b0 &
0(
#3225000
0%
#3230000
0!
1"
b10 .
b11 -
1%
1,
b1 &
b1101 '
#3235000
0%
#3240000
1!
0"
b1 .
b0 -
1%
0+
0,
b10 &
#3245000
0%
#3250000
b1 -
1%
1,
b11 &
#3255000
0%
#3260000
1%
b1011 $
b1011 *
#3265000
0!
b0 .
0%
1(
#3270000
1%
#3275000
b10 -
0%
1+
b0 &
0(
#3280000
b11 -
1"
b10 .
1%
#3285000
0%
b1 &
b1100 '
#3290000
1!
b11 .
1%
#3295000
b1 -
0%
0+
0,
b10 &
b1110 '
#3300000
b0 -
0"
b1 .
1%
#3305000
b1 -
0%
1,
b11 &
#3310000
1%
#3315000
0%
b1100 $
b1100 *
#3320000
0!
b0 .
1%
1(
#3325000
0%
#3330000
1!
b1 .
1%
1+
0,
b0 &
0(
#3335000
0%
#3340000
1%
b1 &
b1111 '
#3345000
0%
#3350000
1%
0+
1,
b10 &
#3355000
0%
#3360000
1%
b11 &
#3365000
0%
#3370000
1%
b1101 $
b1101 *
#3375000
0!
b0 .
0%
1(
#3380000
1%
#3385000
b10 -
0%
1+
b0 &
0(
#3390000
b11 -
1"
b10 .
1%
#3395000
b10 -
0%
0,
b1 &
b1110 '
#3400000
1%
#3405000
0%
0+
1,
b10 &
b1100 '
#3410000
1%
#3415000
0%
b11 &
b1000 '
#3420000
1%
#3425000
0%
b1110 $
b1110 *
b10000 '
#3430000
b1 -
0"
b0 .
1%
1(
#3435000
0%
#3440000
1!
b1 .
1%
1+
0,
b0 &
0(
#3445000
0%
#3450000
0!
1"
b10 .
b11 -
1%
1,
b1 &
b10001 '
#3455000
0%
#3460000
b10 -
1%
0+
b10 &
#3465000
0%
#3470000
1%
b11 &
#3475000
0%
#3480000
1%
b1111 $
b1111 *
#3485000
b1 -
0"
b0 .
0%
1(
#3490000
1%
#3495000
b10 -
0%
1+
b0 &
0(
#3500000
b11 -
1"
b10 .
1%
#3505000
0%
b1 &
b10000 '
#3510000
1!
b11 .
1%
#3515000
b10 -
0%
0+
b10 &
b10010 '
#3520000
0!
b10 .
1%
#3525000
0%
b11 &
#3530000
1%
#3535000
b1 -
0%
0,
b0 $
b100 #
b100 )
b0 *
#3540000
b0 -
0"
b0 .
1%
1(
#3545000
0%
#3550000
1%
b0 &
0(
#3555000
0%
#3560000
1%
b1 &
#3565000
0%
#3570000
1!
b1 .
b1 -
1%
1+
b10 &
b10000 '
#3575000
0%
#3580000
0!
b0 .
b0 -
1%
0+
b11 &
b10100 '
#3585000
0%
#3590000
1%
b1 $
b1 *
b100 '
#3595000
0%
1(
#3600000
1%
#3605000
b1 -
0%
1,
b0 &
0(
#3610000
1!
b1 .
1%
#3615000
b0 -
0%
0,
b1 &
b101 '
#3620000
0!
b0 .
1%
#3625000
b1 -
0%
1+
b10 &
#3630000
1!
b1 .
1%
#3635000
b0 -
0%
0+
b11 &
#3640000
0!
b0 .
1%
#3645000
0%
b10 $
b10 *
#3650000
1%
1(
#3655000
0%
#3660000
1%
b0 &
0(
#3665000
0%
#3670000
1!
b1 .
b1 -
1%
1,
b1 &
b100 '
#3675000
0%
#3680000
1%
1+
0,
b10 &
b110 '
#3685000
0%
#3690000
0!
b0 .
b0 -
1%
0+
b11 &
#3695000
0%
#3700000
1%
b11 $
b11 *
#3705000
0%
1(
#3710000
1%
#3715000
b1 -
0%
1,
b0 &
0(
#3720000
1!
b1 .
1%
#3725000
0%
b1 &
b111 '
#3730000
1%
#3735000
0%
1+
0,
b10 &
#3740000
1%
#3745000
b0 -
0%
0+
b11 &
#3750000
0!
b0 .
1%
#3755000
0%
b100 $
b100 *
#3760000
1%
1(
#3765000
0%
#3770000
1%
b0 &
0(
#3775000
0%
#3780000
1%
b1 &
b110 '
#3785000
0%
#3790000
1"
b10 .
b11 -
1%
1+
1,
b10 &
b100 '
#3795000
0%
#3800000
1!
0"
b1 .
b0 -
1%
0+
0,
b11 &
b0 '
#3805000
0%
#3810000
0!
b0 .
1%
b101 $
b101 *
b1000 '
#3815000
0%
1(
#3820000
1%
#3825000
b1 -
0%
1,
b0 &
0(
#3830000
1!
b1 .
1%
#3835000
b0 -
0%
0,
b1 &
b1001 '
#3840000
0!
b0 .
1%
#3845000
b10 -
0%
1+
1,
b10 &
#3850000
b11 -
1"
b10 .
1%
#3855000
b1 -
0%
0+
0,
b11 &
#3860000
b0 -
1!
0"
b1 .
1%
#3865000
0%
b110 $
b110 *
#3870000
0!
b0 .
1%
1(
#3875000
0%
#3880000
1%
b0 &
0(
#3885000
0%
#3890000
1!
b1 .
b1 -
1%
1,
b1 &
b1000 '
#3895000
0%
#3900000
0!
1"
b10 .
b11 -
1%
1+
b10 &
b1010 '
#3905000
0%
#3910000
1!
0"
b1 .
b0 -
1%
0+
0,
b11 &
#3915000
0%
#3920000
0!
b0 .
1%
b111 $
b111 *
#3925000
0%
1(
#3930000
1%
#3935000
b1 -
0%
1,
b0 &
0(
#3940000
1!
b1 .
1%
#3945000
0%
b1 &
b1011 '
#3950000
1%
#3955000
b10 -
0%
1+
b10 &
#3960000
b11 -
0!
1"
b10 .
1%
#3965000
b1 -
0%
0+
0,
b11 &
#3970000
b0 -
1!
0"
b1 .
1%
#3975000
b1 -
0%
1,
b1000 $
b1000 *
#3980000
0!
b0 .
1%
1(
#3985000
0%
#3990000
b0 -
1%
0,
b0 &
0(
#3995000
0%
#4000000
1%
b1 &
b1010 '
#4005000
0%
#4010000
1!
b1 .
b1 -
1%
1+
b10 &
b1000 '
#4015000
0%
#4020000
1%
0+
1,
b11 &
b1100 '
#4025000
0%
#4030000
1%
b1001 $
b1001 *
#4035000
0!
b0 .
0%
1(
#4040000
1%
#4045000
0%
b0 &
0(
#4050000
1!
b1 .
1%
#4055000
b0 -
0%
0,
b1 &
b1101 '
#4060000
0!
b0 .
1%
#4065000
b1 -
0%
1+
b10 &
#4070000
1!
b1 .
1%
#4075000
0%
0+
1,
b11 &
#4080000
1%
#4085000
0%
b1010 $
b1010 *
#4090000
0!
b0 .
1%
1(
#4095000
0%
#4100000
b0 -
1%
0,
b0 &
0(
#4105000
0%
#4110000
1!
b1 .
b1 -
1%
1,
b1 &
b1100 '
#4115000
0%
#4120000
1%
1+
0,
b10 &
b1110 '
#4125000
0%
#4130000
1%
0+
1,
b11 &
#4135000
0%
#4140000
1%
b1011 $
b1011 *
#4145000
0!
b0 .
0%
1(
#4150000
1%
#4155000
0%
b0 &
0(
#4160000
1!
b1 .
1%
#4165000
0%
b1 &
b1111 '
#4170000
1%
#4175000
0%
1+
0,
b10 &
#4180000
1%
#4185000
0%
0+
1,
b11 &
#4190000
1%
#4195000
0%
b1100 $
b1100 *
#4200000
0!
b0 .
1%
1(
#4205000
0%
#4210000
b0 -
1%
0,
b0 &
0(
#4215000
0%
#4220000
1%
b1 &
b1110 '
#4225000
0%
#4230000
1"
b10 .
b11 -
1%
1+
1,
b10 &
b1100 '
#4235000
0%
#4240000
b10 -
1%
0+
b11 &
b1000 '
#4245000
0%
#4250000
1%
b1101 $
b1101 *
b10000 '
#4255000
b1 -
0"
b0 .
0%
1(
#4260000
1%
#4265000
0%
b0 &
0(
#4270000
1!
b1 .
1%
#4275000
b0 -
0%
0,
b1 &
b10001 '
#4280000
0!
b0 .
1%
#4285000
b10 -
0%
1+
1,
b10 &
#4290000
b11 -
1"
b10 .
1%
#4295000
b10 -
0%
0+
b11 &
#4300000
1%
#4305000
0%
b1110 $
b1110 *
